{"name":"getUsers","id":"SerenityInitialTest:getUsers","testCaseName":"SerenityInitialTest","testSteps":[{"number":1,"description":"Daniel executes a GET on the resource /users?page\u003d2","duration":1723,"startTime":"2020-06-04T22:14:40.886-05:00[America/Bogota]","result":"SUCCESS","precondition":false,"children":[{"number":2,"description":"GET https://reqres.in/api/users?page\u003d2","duration":1,"startTime":"2020-06-04T22:14:42.606-05:00[America/Bogota]","result":"SUCCESS","restQuery":{"method":"GET","path":"https://reqres.in/api/users?page\u003d2","content":"","contentType":"application/json","requestHeaders":"Accept\u003d*/*\n\t\t\t\tContent-Type\u003dapplication/json; charset\u003dUTF-8","requestCookies":"","responseHeaders":"Date: Fri, 05 Jun 2020 03:14:42 GMT\nContent-Type: application/json; charset\u003dutf-8\nTransfer-Encoding: chunked\nConnection: keep-alive\nSet-Cookie: __cfduid\u003ddc8233bbe4791a6d0e25317a730018ae11591326882; expires\u003dSun, 05-Jul-20 03:14:42 GMT; path\u003d/; domain\u003d.reqres.in; HttpOnly; SameSite\u003dLax; Secure\nX-Powered-By: Express\nAccess-Control-Allow-Origin: *\nEtag: W/\"4dd-IPv5LdOOb6s5S9E3i59wBCJ1k/0\"\nVia: 1.1 vegur\nCache-Control: max-age\u003d14400\nCF-Cache-Status: HIT\nAge: 1171\ncf-request-id: 03241252af0000ef3656ab6200000001\nExpect-CT: max-age\u003d604800, report-uri\u003d\"https://report-uri.cloudflare.com/cdn-cgi/beacon/expect-ct\"\nVary: Accept-Encoding\nServer: cloudflare\nCF-RAY: 59e6b9977f71ef36-MIA\nContent-Encoding: gzip","responseCookies":"__cfduid\u003ddc8233bbe4791a6d0e25317a730018ae11591326882;Path\u003d/;Domain\u003d.reqres.in;Secure;HttpOnly;Expires\u003d5/07/20 03:14 AM","responseBody":"{\n    \"page\": 2,\n    \"per_page\": 6,\n    \"total\": 12,\n    \"total_pages\": 2,\n    \"data\": [\n        {\n            \"id\": 7,\n            \"email\": \"michael.lawson@reqres.in\",\n            \"first_name\": \"Michael\",\n            \"last_name\": \"Lawson\",\n            \"avatar\": \"https://s3.amazonaws.com/uifaces/faces/twitter/follettkyle/128.jpg\"\n        },\n        {\n            \"id\": 8,\n            \"email\": \"lindsay.ferguson@reqres.in\",\n            \"first_name\": \"Lindsay\",\n            \"last_name\": \"Ferguson\",\n            \"avatar\": \"https://s3.amazonaws.com/uifaces/faces/twitter/araa3185/128.jpg\"\n        },\n        {\n            \"id\": 9,\n            \"email\": \"tobias.funke@reqres.in\",\n            \"first_name\": \"Tobias\",\n            \"last_name\": \"Funke\",\n            \"avatar\": \"https://s3.amazonaws.com/uifaces/faces/twitter/vivekprvr/128.jpg\"\n        },\n        {\n            \"id\": 10,\n            \"email\": \"byron.fields@reqres.in\",\n            \"first_name\": \"Byron\",\n            \"last_name\": \"Fields\",\n            \"avatar\": \"https://s3.amazonaws.com/uifaces/faces/twitter/russoedu/128.jpg\"\n        },\n        {\n            \"id\": 11,\n            \"email\": \"george.edwards@reqres.in\",\n            \"first_name\": \"George\",\n            \"last_name\": \"Edwards\",\n            \"avatar\": \"https://s3.amazonaws.com/uifaces/faces/twitter/mrmoiree/128.jpg\"\n        },\n        {\n            \"id\": 12,\n            \"email\": \"rachel.howell@reqres.in\",\n            \"first_name\": \"Rachel\",\n            \"last_name\": \"Howell\",\n            \"avatar\": \"https://s3.amazonaws.com/uifaces/faces/twitter/hebertialmeida/128.jpg\"\n        }\n    ],\n    \"ad\": {\n        \"company\": \"StatusCode Weekly\",\n        \"url\": \"http://statuscode.org/\",\n        \"text\": \"A weekly newsletter focusing on software development, infrastructure, the server, performance, and the stack end of things.\"\n    }\n}","statusCode":200},"precondition":false}]}],"userStory":{"id":"SerenityInitialTest","storyName":"Serenity initial test","storyClassName":"SerenityInitialTest","path":"","type":"story"},"featureTag":{"name":"Serenity initial test","type":"story"},"title":"Get users","tags":[{"name":"Serenity initial test","type":"story"}],"startTime":"2020-06-04T22:14:40.743-05:00[America/Bogota]","duration":1916,"projectKey":"","manual":false,"testSource":"JUnit","actors":[{"name":"Daniel","can":["call an API at https://reqres.in/api"]}],"result":"SUCCESS"}