{"name":"getUsersFail","id":"SerenityInitialTest:getUsersFail","testCaseName":"SerenityInitialTest","testSteps":[{"number":1,"description":"Daniel executes a GET on the resource /users?page\u003d2","duration":1733,"startTime":"2020-06-04T21:56:04.715-05:00[America/Bogota]","result":"SUCCESS","precondition":false,"children":[{"number":2,"description":"GET https://reqres.in/api/users?page\u003d2","duration":1,"startTime":"2020-06-04T21:56:06.446-05:00[America/Bogota]","result":"SUCCESS","restQuery":{"method":"GET","path":"https://reqres.in/api/users?page\u003d2","content":"","contentType":"null","requestHeaders":"Accept\u003d*/*","requestCookies":"","responseHeaders":"Date: Fri, 05 Jun 2020 02:56:06 GMT\nContent-Type: application/json; charset\u003dutf-8\nTransfer-Encoding: chunked\nConnection: keep-alive\nSet-Cookie: __cfduid\u003dd3d6a3f24f06ece40b86f12c4b5447c571591325766; expires\u003dSun, 05-Jul-20 02:56:06 GMT; path\u003d/; domain\u003d.reqres.in; HttpOnly; SameSite\u003dLax; Secure\nX-Powered-By: Express\nAccess-Control-Allow-Origin: *\nEtag: W/\"4dd-IPv5LdOOb6s5S9E3i59wBCJ1k/0\"\nVia: 1.1 vegur\nCache-Control: max-age\u003d14400\nCF-Cache-Status: HIT\nAge: 55\ncf-request-id: 0324014a920000c86fbe3f3200000001\nExpect-CT: max-age\u003d604800, report-uri\u003d\"https://report-uri.cloudflare.com/cdn-cgi/beacon/expect-ct\"\nVary: Accept-Encoding\nServer: cloudflare\nCF-RAY: 59e69e575aa1c86f-MIA\nContent-Encoding: gzip","responseCookies":"__cfduid\u003dd3d6a3f24f06ece40b86f12c4b5447c571591325766;Path\u003d/;Domain\u003d.reqres.in;Secure;HttpOnly;Expires\u003d5/07/20 02:56 AM","responseBody":"{\n    \"page\": 2,\n    \"per_page\": 6,\n    \"total\": 12,\n    \"total_pages\": 2,\n    \"data\": [\n        {\n            \"id\": 7,\n            \"email\": \"michael.lawson@reqres.in\",\n            \"first_name\": \"Michael\",\n            \"last_name\": \"Lawson\",\n            \"avatar\": \"https://s3.amazonaws.com/uifaces/faces/twitter/follettkyle/128.jpg\"\n        },\n        {\n            \"id\": 8,\n            \"email\": \"lindsay.ferguson@reqres.in\",\n            \"first_name\": \"Lindsay\",\n            \"last_name\": \"Ferguson\",\n            \"avatar\": \"https://s3.amazonaws.com/uifaces/faces/twitter/araa3185/128.jpg\"\n        },\n        {\n            \"id\": 9,\n            \"email\": \"tobias.funke@reqres.in\",\n            \"first_name\": \"Tobias\",\n            \"last_name\": \"Funke\",\n            \"avatar\": \"https://s3.amazonaws.com/uifaces/faces/twitter/vivekprvr/128.jpg\"\n        },\n        {\n            \"id\": 10,\n            \"email\": \"byron.fields@reqres.in\",\n            \"first_name\": \"Byron\",\n            \"last_name\": \"Fields\",\n            \"avatar\": \"https://s3.amazonaws.com/uifaces/faces/twitter/russoedu/128.jpg\"\n        },\n        {\n            \"id\": 11,\n            \"email\": \"george.edwards@reqres.in\",\n            \"first_name\": \"George\",\n            \"last_name\": \"Edwards\",\n            \"avatar\": \"https://s3.amazonaws.com/uifaces/faces/twitter/mrmoiree/128.jpg\"\n        },\n        {\n            \"id\": 12,\n            \"email\": \"rachel.howell@reqres.in\",\n            \"first_name\": \"Rachel\",\n            \"last_name\": \"Howell\",\n            \"avatar\": \"https://s3.amazonaws.com/uifaces/faces/twitter/hebertialmeida/128.jpg\"\n        }\n    ],\n    \"ad\": {\n        \"company\": \"StatusCode Weekly\",\n        \"url\": \"http://statuscode.org/\",\n        \"text\": \"A weekly newsletter focusing on software development, infrastructure, the server, performance, and the stack end of things.\"\n    }\n}","statusCode":200},"precondition":false}]}],"userStory":{"id":"SerenityInitialTest","storyName":"Serenity initial test","storyClassName":"SerenityInitialTest","path":"","type":"story"},"featureTag":{"name":"Serenity initial test","type":"story"},"title":"Get users fail","tags":[{"name":"Serenity initial test","type":"story"}],"startTime":"2020-06-04T21:56:04.617-05:00[America/Bogota]","duration":1875,"testFailureCause":{"errorType":"org.junit.ComparisonFailure","message":"expected:\u003c[4]00\u003e but was:\u003c[2]00\u003e","stackTrace":[{"declaringClass":"SerenityInitialTest","methodName":"getUsersFail","fileName":"SerenityInitialTest.java","lineNumber":30}]},"testFailureClassname":"org.junit.ComparisonFailure","testFailureMessage":"expected:\u003c[4]00\u003e but was:\u003c[2]00\u003e","testFailureSummary":"FAILURE;org.junit.ComparisonFailure;expected:\u003c[4]00\u003e but was:\u003c[2]00\u003e;SerenityInitialTest.java","projectKey":"","annotatedResult":"FAILURE","manual":false,"testSource":"JUnit","actors":[{"name":"Daniel","can":["call an API at https://reqres.in/api"]}],"result":"FAILURE"}